Homework 2 : Exercise 3
…
The analyst did not succeed, as they did not get all observations for the two countries of interest. This is because of recycling and the problem that we are evaluating objects of two different lengths. Essentially, R is taking c("Rwanda", "Afghanistan") and repeating this to evaluate if country[1] == "Rwanda", country[2] == "Afghanistan", country[3] == "Rwanda"... and pulling the observations which return TRUE for the entire legnth of gapminder. In this way, you are getting every second of each Afghanistan and Rwandas observations. There are many differnt correct ways to do this:

gapminder %>% 
filter(country == "Rwanda" | country == "Afghanistan")

## # A tibble: 24 x 6
##    country     continent  year lifeExp      pop gdpPercap
##    <fct>       <fct>     <int>   <dbl>    <int>     <dbl>
##  1 Afghanistan Asia       1952    28.8  8425333      779.
##  2 Afghanistan Asia       1957    30.3  9240934      821.
##  3 Afghanistan Asia       1962    32.0 10267083      853.
##  4 Afghanistan Asia       1967    34.0 11537966      836.
##  5 Afghanistan Asia       1972    36.1 13079460      740.
##  6 Afghanistan Asia       1977    38.4 14880372      786.
##  7 Afghanistan Asia       1982    39.9 12881816      978.
##  8 Afghanistan Asia       1987    40.8 13867957      852.
##  9 Afghanistan Asia       1992    41.7 16317921      649.
## 10 Afghanistan Asia       1997    41.8 22227415      635.
## #  with 14 more rows
…
