…
```r
wide_uni %>% 
  pivot_longer(cols = c("Canada", "Switzerland", "United States" ),
               names_to = "country",
               values_to = "LifeExp") %>% 
  arrange(country, year)
```

```
## # A tibble: 36 x 3
##     year country LifeExp
##    <int> <chr>     <dbl>
##  1  1952 Canada     68.8
##  2  1957 Canada     70.0
##  3  1962 Canada     71.3
##  4  1967 Canada     72.1
##  5  1972 Canada     72.9
##  6  1977 Canada     74.2
##  7  1982 Canada     75.8
##  8  1987 Canada     76.9
##  9  1992 Canada     78.0
## 10  1997 Canada     78.6
## # … with 26 more rows
```
…
```r
(wide_multi %>% 
  pivot_longer(cols = c(-year),
               names_to = c(".value","country"),
               names_sep = "_",) %>% 
  arrange(country, year))
```

```
## # A tibble: 24 x 4
##     year country lifeExp gdpPercap
##    <int> <chr>     <dbl>     <dbl>
##  1  1952 Canada     68.8    11367.
##  2  1957 Canada     70.0    12490.
##  3  1962 Canada     71.3    13462.
##  4  1967 Canada     72.1    16077.
##  5  1972 Canada     72.9    18971.
##  6  1977 Canada     74.2    22091.
##  7  1982 Canada     75.8    22899.
##  8  1987 Canada     76.9    26627.
##  9  1992 Canada     78.0    26343.
## 10  1997 Canada     78.6    28955.
## # … with 14 more rows
```
…
We first had to separate email_name and rename guest so there was a common variable to join by, note also the space after the comma was needed here for separating, or else names woudl not match. Another way would be to define an index for party in email 


```r
email_name <- email %>% 
  separate_rows(guest, sep = ", ") %>% 
  rename(name = guest)

guest %>% 
  left_join(email_name,
            by = "name")
```

```
## # A tibble: 30 x 8
##    party name  meal_wedding meal_brunch attendance_wedd… attendance_brun…
##    <dbl> <chr> <chr>        <chr>       <chr>            <chr>           
##  1     1 Somm… PENDING      PENDING     PENDING          PENDING         
##  2     1 Phil… vegetarian   Menu C      CONFIRMED        CONFIRMED       
##  3     1 Blan… chicken      Menu A      CONFIRMED        CONFIRMED       
##  4     1 Emaa… PENDING      PENDING     PENDING          PENDING         
##  5     2 Blai… chicken      Menu C      CONFIRMED        CONFIRMED       
##  6     2 Nige… <NA>         <NA>        CANCELLED        CANCELLED       
##  7     3 Sine… PENDING      PENDING     PENDING          PENDING         
##  8     4 Ayra… vegetarian   Menu B      PENDING          PENDING         
##  9     5 Atla… PENDING      PENDING     PENDING          PENDING         
## 10     5 Denz… fish         Menu B      CONFIRMED        CONFIRMED       
## # … with 20 more rows, and 2 more variables: attendance_golf <chr>,
## #   email <chr>
```
…
