Untitled
…
## [1] 4

levels(gap_dropped$continent) #Oceania is gone 

## [1] "Africa"   "Americas" "Asia"     "Europe"

First note without reordering, the variables are just in alphabetical order.

# Comparing results of arrange
# This is not as clear as figures - but here Asia comes before Americas
gap_dropped %>% 
  filter(year == 2007) %>% 
  arrange(fct_reorder(continent, gdpPercap, min))

## # A tibble: 140 x 6
##    country                  continent  year lifeExp      pop gdpPercap
##    <fct>                    <fct>     <int>   <dbl>    <int>     <dbl>
##  1 Algeria                  Africa     2007    72.3 33333216     6223.
##  2 Angola                   Africa     2007    42.7 12420476     4797.
##  3 Benin                    Africa     2007    56.7  8078314     1441.
##  4 Botswana                 Africa     2007    50.7  1639131    12570.
##  5 Burkina Faso             Africa     2007    52.3 14326203     1217.
##  6 Burundi                  Africa     2007    49.6  8390505      430.
##  7 Cameroon                 Africa     2007    50.4 17696293     2042.
##  8 Central African Republic Africa     2007    44.7  4369038      706.
##  9 Chad                     Africa     2007    50.7 10238807     1704.
## 10 Comoros                  Africa     2007    65.2   710960      986.
## #  with 130 more rows
…
Read the dataset back in, it survived the round trip! Then play with factors again. Note saveRDS()/readRDS() is for the R data format .rds and dput()/dget is for ASCII.

gap_read <- read_csv(here::here("hw05_EA","gapminder_group.csv"))

## Parsed with column specification:
## cols(
##   country = col_character(),
##   ave_lifeExp = col_double(),
##   ave_gdpPercap = col_double()
## )

gap_read %>% 
  arrange(fct_reorder(country, ave_lifeExp, min))

## # A tibble: 142 x 3
##    country           ave_lifeExp ave_gdpPercap
##    <chr>                   <dbl>         <dbl>
##  1 Sierra Leone             36.8         1073.
##  2 Afghanistan              37.5          803.
##  3 Angola                   37.9         3607.
##  4 Guinea-Bissau            39.2          652.
##  5 Mozambique               40.4          542.
##  6 Somalia                  41.0         1141.
##  7 Rwanda                   41.5          676.
##  8 Liberia                  42.5          605.
##  9 Equatorial Guinea        43.0         2469.
## 10 Guinea                   43.2          776.
## #  with 132 more rows
…
