HW 003
…
Task 5

Life expectancy over time on different contients.

gapminder %>%
  group_by(continent, year) %>% 
  summarise(mean = mean(lifeExp))

## # A tibble: 60 x 3
## # Groups:   continent [5]
##    continent  year  mean
##    <fct>     <int> <dbl>
##  1 Africa     1952  39.1
##  2 Africa     1957  41.3
##  3 Africa     1962  43.3
##  4 Africa     1967  45.3
##  5 Africa     1972  47.5
##  6 Africa     1977  49.6
##  7 Africa     1982  51.6
##  8 Africa     1987  53.3
##  9 Africa     1992  53.6
## 10 Africa     1997  53.6
## #  with 50 more rows
…
The following were done as optional exercises:

Task 1

Create a benchmark life expectancy for each year. How many countries wtihin each continent are below this benchmark each year?

# A benchmark: 25th quantile
gapminder %>%
  group_by(continent, year) %>% #5 continents x 12 years = 60 groups
  summarize(n = sum(ifelse(lifeExp < quantile(gapminder$lifeExp, c(.25)),1,0)))

## # A tibble: 60 x 3
## # Groups:   continent [5]
##    continent  year     n
##    <fct>     <int> <dbl>
##  1 Africa     1952    49
##  2 Africa     1957    47
##  3 Africa     1962    42
##  4 Africa     1967    37
##  5 Africa     1972    28
##  6 Africa     1977    24
##  7 Africa     1982    19
##  8 Africa     1987    16
##  9 Africa     1992    14
## 10 Africa     1997    16
## #  with 50 more rows
…
